{
  "modules" : [
    {
      "name" : "sap/suite/ui/commons/BulletChart.js",
      "description" : "Provides control sap.suite.ui.commons.BulletChart.",
      "size" : 36721,
      "compressedSize" : 8606,
      "required" : ["sap/suite/ui/commons/library.js", "sap/ui/core/Control.js", "jquery.sap.global.js"],
      "includes" : []
    },
    {
      "name" : "sap/suite/ui/commons/BulletChartData.js",
      "description" : "Provides control sap.suite.ui.commons.BulletChartData.",
      "size" : 5493,
      "compressedSize" : 882,
      "required" : ["sap/suite/ui/commons/library.js", "sap/ui/core/Element.js", "jquery.sap.global.js"],
      "includes" : []
    },
    {
      "name" : "sap/suite/ui/commons/BulletChartRenderer.js",
      "description" : "! SAP UI development toolkit for HTML5 (SAPUI5) (c) Copyright 2009-2013 SAP AG. All rights reserved",
      "size" : 11052,
      "compressedSize" : 5752,
      "required" : ["jquery.sap.global.js"],
      "includes" : []
    },
    {
      "name" : "sap/suite/ui/commons/BusinessCard.js",
      "description" : "Provides control sap.suite.ui.commons.BusinessCard.",
      "size" : 9145,
      "compressedSize" : 818,
      "required" : ["sap/suite/ui/commons/library.js", "sap/ui/core/Control.js", "jquery.sap.global.js"],
      "includes" : []
    },
    {
      "name" : "sap/suite/ui/commons/BusinessCardRenderer.js",
      "description" : "! SAP UI development toolkit for HTML5 (SAPUI5) (c) Copyright 2009-2013 SAP AG. All rights reserved",
      "size" : 4846,
      "compressedSize" : 2305,
      "required" : ["sap/ui/commons/Link.js", "jquery.sap.global.js"],
      "includes" : []
    },
    {
      "name" : "sap/suite/ui/commons/ChartContainer.js",
      "description" : "Provides control sap.suite.ui.commons.ChartContainer.",
      "size" : 40488,
      "compressedSize" : 15376,
      "required" : ["sap/suite/ui/commons/library.js", "sap/ui/core/Control.js", "sap/m/Popover.js", "sap/m/Button.js", "sap/m/Select.js", "sap/m/Dialog.js", "sap/ui/core/ResizeHandler.js", "sap/ui/Device.js", "jquery.sap.global.js"],
      "includes" : []
    },
    {
      "name" : "sap/suite/ui/commons/ChartContainerContent.js",
      "description" : "Provides control sap.suite.ui.commons.ChartContainerContent.",
      "size" : 5856,
      "compressedSize" : 682,
      "required" : ["sap/suite/ui/commons/library.js", "sap/ui/core/Control.js", "jquery.sap.global.js"],
      "includes" : []
    },
    {
      "name" : "sap/suite/ui/commons/ChartContainerContentRenderer.js",
      "description" : "! SAP UI development toolkit for HTML5 (SAPUI5) (c) Copyright 2009-2013 SAP AG. All rights reserved",
      "size" : 890,
      "compressedSize" : 343,
      "required" : ["jquery.sap.global.js"],
      "includes" : []
    },
    {
      "name" : "sap/suite/ui/commons/ChartContainerRenderer.js",
      "description" : "! SAP UI development toolkit for HTML5 (SAPUI5) (c) Copyright 2009-2013 SAP AG. All rights reserved",
      "size" : 1713,
      "compressedSize" : 905,
      "required" : ["jquery.sap.global.js"],
      "includes" : []
    },
    {
      "name" : "sap/suite/ui/commons/ChartTile.js",
      "description" : "Provides control sap.suite.ui.commons.ChartTile.",
      "size" : 5199,
      "compressedSize" : 1239,
      "required" : ["sap/suite/ui/commons/library.js", "sap/suite/ui/commons/InfoTile.js", "jquery.sap.global.js"],
      "includes" : []
    },
    {
      "name" : "sap/suite/ui/commons/ChartTileRenderer.js",
      "description" : "! SAP UI development toolkit for HTML5 (SAPUI5) (c) Copyright 2009-2013 SAP AG. All rights reserved",
      "size" : 2962,
      "compressedSize" : 1686,
      "required" : ["sap/ui/core/Renderer.js", "sap/suite/ui/commons/InfoTileRenderer.js", "jquery.sap.global.js"],
      "includes" : []
    },
    {
      "name" : "sap/suite/ui/commons/ColumnData.js",
      "description" : "Provides control sap.suite.ui.commons.ColumnData.",
      "size" : 5584,
      "compressedSize" : 639,
      "required" : ["sap/suite/ui/commons/library.js", "sap/ui/core/Element.js", "jquery.sap.global.js"],
      "includes" : []
    },
    {
      "name" : "sap/suite/ui/commons/ColumnMicroChart.js",
      "description" : "Provides control sap.suite.ui.commons.ColumnMicroChart.",
      "size" : 18004,
      "compressedSize" : 4951,
      "required" : ["sap/suite/ui/commons/library.js", "sap/ui/core/Control.js", "jquery.sap.global.js"],
      "includes" : []
    },
    {
      "name" : "sap/suite/ui/commons/ColumnMicroChartRenderer.js",
      "description" : "! SAP UI development toolkit for HTML5 (SAPUI5) (c) Copyright 2009-2013 SAP AG. All rights reserved",
      "size" : 1921,
      "compressedSize" : 1121,
      "required" : ["jquery.sap.global.js"],
      "includes" : []
    },
    {
      "name" : "sap/suite/ui/commons/ComparisonChart.js",
      "description" : "Provides control sap.suite.ui.commons.ComparisonChart.",
      "size" : 16428,
      "compressedSize" : 3388,
      "required" : ["sap/suite/ui/commons/library.js", "sap/ui/core/Control.js", "jquery.sap.global.js"],
      "includes" : []
    },
    {
      "name" : "sap/suite/ui/commons/ComparisonChartRenderer.js",
      "description" : "! SAP UI development toolkit for HTML5 (SAPUI5) (c) Copyright 2009-2013 SAP AG. All rights reserved",
      "size" : 6069,
      "compressedSize" : 3423,
      "required" : ["sap/ui/core/Renderer.js", "jquery.sap.global.js"],
      "includes" : []
    },
    {
      "name" : "sap/suite/ui/commons/ComparisonData.js",
      "description" : "Provides control sap.suite.ui.commons.ComparisonData.",
      "size" : 7163,
      "compressedSize" : 995,
      "required" : ["sap/suite/ui/commons/library.js", "sap/ui/core/Element.js", "jquery.sap.global.js"],
      "includes" : []
    },
    {
      "name" : "sap/suite/ui/commons/CountingNavigationItem.js",
      "description" : "Provides control sap.suite.ui.commons.CountingNavigationItem.",
      "size" : 4464,
      "compressedSize" : 470,
      "required" : ["sap/suite/ui/commons/library.js", "sap/ui/ux3/NavigationItem.js", "jquery.sap.global.js"],
      "includes" : []
    },
    {
      "name" : "sap/suite/ui/commons/DateRangeScroller.js",
      "description" : "Provides control sap.suite.ui.commons.DateRangeScroller.",
      "size" : 31275,
      "compressedSize" : 11154,
      "required" : ["sap/suite/ui/commons/library.js", "sap/ui/core/Control.js", "sap/ui/commons/Label.js", "sap/ui/core/format/DateFormat.js", "sap/suite/ui/commons/util/DateUtils.js", "jquery.sap.global.js"],
      "includes" : []
    },
    {
      "name" : "sap/suite/ui/commons/DateRangeScrollerRenderer.js",
      "description" : "! SAP UI development toolkit for HTML5 (SAPUI5) (c) Copyright 2009-2013 SAP AG. All rights reserved",
      "size" : 3854,
      "compressedSize" : 2189,
      "required" : ["jquery.sap.global.js"],
      "includes" : []
    },
    {
      "name" : "sap/suite/ui/commons/DateRangeSlider.js",
      "description" : "Provides control sap.suite.ui.commons.DateRangeSlider.",
      "size" : 41492,
      "compressedSize" : 10251,
      "required" : ["sap/suite/ui/commons/library.js", "sap/ui/core/Control.js", "jquery.sap.resources.js", "sap/suite/ui/commons/util/DateUtils.js", "jquery.sap.global.js"],
      "includes" : []
    },
    {
      "name" : "sap/suite/ui/commons/DateRangeSliderInternal.js",
      "description" : "Provides control sap.suite.ui.commons.DateRangeSliderInternal.",
      "size" : 46023,
      "compressedSize" : 18838,
      "required" : ["sap/suite/ui/commons/library.js", "sap/ui/commons/RangeSlider.js", "jquery.sap.resources.js", "sap/ui/core/format/DateFormat.js", "sap/ui/core/ResizeHandler.js", "sap/ui/commons/Label.js", "sap/suite/ui/commons/util/DateUtils.js", "jquery.sap.global.js"],
      "includes" : []
    },
    {
      "name" : "sap/suite/ui/commons/DateRangeSliderInternalRenderer.js",
      "description" : "! SAP UI development toolkit for HTML5 (SAPUI5) (c) Copyright 2009-2013 SAP AG. All rights reserved",
      "size" : 15841,
      "compressedSize" : 5845,
      "required" : ["sap/ui/commons/RangeSliderRenderer.js", "sap/ui/core/Renderer.js", "jquery.sap.global.js"],
      "includes" : []
    },
    {
      "name" : "sap/suite/ui/commons/DateRangeSliderRenderer.js",
      "description" : "! SAP UI development toolkit for HTML5 (SAPUI5) (c) Copyright 2009-2013 SAP AG. All rights reserved",
      "size" : 1189,
      "compressedSize" : 500,
      "required" : ["jquery.sap.global.js"],
      "includes" : []
    },
    {
      "name" : "sap/suite/ui/commons/DynamicContainer.js",
      "description" : "Provides control sap.suite.ui.commons.DynamicContainer.",
      "size" : 19719,
      "compressedSize" : 8082,
      "required" : ["sap/suite/ui/commons/library.js", "sap/ui/core/Control.js", "jquery.sap.global.js"],
      "includes" : []
    },
    {
      "name" : "sap/suite/ui/commons/DynamicContainerRenderer.js",
      "description" : "! SAP UI development toolkit for HTML5 (SAPUI5) (c) Copyright 2009-2013 SAP AG. All rights reserved",
      "size" : 1579,
      "compressedSize" : 908,
      "required" : ["jquery.sap.global.js"],
      "includes" : []
    },
    {
      "name" : "sap/suite/ui/commons/FacetOverview.js",
      "description" : "Provides control sap.suite.ui.commons.FacetOverview.",
      "size" : 20721,
      "compressedSize" : 5399,
      "required" : ["sap/suite/ui/commons/library.js", "sap/ui/core/Control.js", "sap/ui/core/IconPool.js", "jquery.sap.global.js"],
      "includes" : []
    },
    {
      "name" : "sap/suite/ui/commons/FacetOverviewRenderer.js",
      "description" : "! SAP UI development toolkit for HTML5 (SAPUI5) (c) Copyright 2009-2013 SAP AG. All rights reserved",
      "size" : 3122,
      "compressedSize" : 1730,
      "required" : ["jquery.sap.global.js"],
      "includes" : []
    },
    {
      "name" : "sap/suite/ui/commons/FeedItem.js",
      "description" : "Provides control sap.suite.ui.commons.FeedItem.",
      "size" : 7805,
      "compressedSize" : 1120,
      "required" : ["sap/suite/ui/commons/library.js", "sap/ui/core/Element.js", "jquery.sap.global.js"],
      "includes" : []
    },
    {
      "name" : "sap/suite/ui/commons/FeedItemHeader.js",
      "description" : "Provides control sap.suite.ui.commons.FeedItemHeader.",
      "size" : 9951,
      "compressedSize" : 1732,
      "required" : ["sap/suite/ui/commons/library.js", "sap/m/ListItemBase.js", "jquery.sap.global.js"],
      "includes" : []
    },
    {
      "name" : "sap/suite/ui/commons/FeedItemHeaderRenderer.js",
      "description" : "@copyright",
      "size" : 4361,
      "compressedSize" : 2418,
      "required" : ["sap/ui/core/Renderer.js", "sap/m/ListItemBaseRenderer.js", "sap/suite/ui/commons/util/FeedItemUtils.js", "jquery.sap.global.js"],
      "includes" : []
    },
    {
      "name" : "sap/suite/ui/commons/FeedTile.js",
      "description" : "Provides control sap.suite.ui.commons.FeedTile.",
      "size" : 21237,
      "compressedSize" : 5728,
      "required" : ["sap/suite/ui/commons/library.js", "sap/ui/core/Control.js", "jquery.sap.global.js"],
      "includes" : []
    },
    {
      "name" : "sap/suite/ui/commons/FeedTileRenderer.js",
      "description" : "@copyright",
      "size" : 4730,
      "compressedSize" : 2828,
      "required" : ["sap/suite/ui/commons/util/FeedItemUtils.js", "jquery.sap.global.js"],
      "includes" : []
    },
    {
      "name" : "sap/suite/ui/commons/GenericTile.js",
      "description" : "Provides control sap.suite.ui.commons.GenericTile.",
      "size" : 21829,
      "compressedSize" : 5539,
      "required" : ["sap/suite/ui/commons/library.js", "sap/ui/core/Control.js", "sap/m/Text.js", "sap/ui/core/IconPool.js", "jquery.sap.global.js"],
      "includes" : []
    },
    {
      "name" : "sap/suite/ui/commons/GenericTileRenderer.js",
      "description" : "! SAP UI development toolkit for HTML5 (SAPUI5) (c) Copyright 2009-2013 SAP AG. All rights reserved",
      "size" : 5734,
      "compressedSize" : 3095,
      "required" : ["jquery.sap.global.js"],
      "includes" : []
    },
    {
      "name" : "sap/suite/ui/commons/HeaderCell.js",
      "description" : "Provides control sap.suite.ui.commons.HeaderCell.",
      "size" : 8659,
      "compressedSize" : 821,
      "required" : ["sap/suite/ui/commons/library.js", "sap/ui/core/Control.js", "jquery.sap.global.js"],
      "includes" : []
    },
    {
      "name" : "sap/suite/ui/commons/HeaderCellItem.js",
      "description" : "Provides control sap.suite.ui.commons.HeaderCellItem.",
      "size" : 5054,
      "compressedSize" : 522,
      "required" : ["sap/suite/ui/commons/library.js", "sap/ui/core/Element.js", "jquery.sap.global.js"],
      "includes" : []
    },
    {
      "name" : "sap/suite/ui/commons/HeaderCellRenderer.js",
      "description" : "! SAP UI development toolkit for HTML5 (SAPUI5) (c) Copyright 2009-2013 SAP AG. All rights reserved",
      "size" : 2220,
      "compressedSize" : 1122,
      "required" : ["jquery.sap.global.js"],
      "includes" : []
    },
    {
      "name" : "sap/suite/ui/commons/HeaderContainer.js",
      "description" : "Provides control sap.suite.ui.commons.HeaderContainer.",
      "size" : 18069,
      "compressedSize" : 7737,
      "required" : ["sap/suite/ui/commons/library.js", "sap/ui/core/Control.js", "sap/ui/core/IconPool.js", "sap/ui/core/Icon.js", "sap/ui/core/delegate/ItemNavigation.js", "jquery.sap.global.js"],
      "includes" : []
    },
    {
      "name" : "sap/suite/ui/commons/HeaderContainerRenderer.js",
      "description" : "! SAP UI development toolkit for HTML5 (SAPUI5) (c) Copyright 2009-2013 SAP AG. All rights reserved",
      "size" : 1858,
      "compressedSize" : 1034,
      "required" : ["jquery.sap.global.js"],
      "includes" : []
    },
    {
      "name" : "sap/suite/ui/commons/InfoTile.js",
      "description" : "Provides control sap.suite.ui.commons.InfoTile.",
      "size" : 11620,
      "compressedSize" : 1958,
      "required" : ["sap/suite/ui/commons/library.js", "sap/ui/core/Control.js", "sap/m/Text.js", "jquery.sap.global.js"],
      "includes" : []
    },
    {
      "name" : "sap/suite/ui/commons/InfoTileRenderer.js",
      "description" : "! SAP UI development toolkit for HTML5 (SAPUI5) (c) Copyright 2009-2013 SAP AG. All rights reserved",
      "size" : 6897,
      "compressedSize" : 2878,
      "required" : ["jquery.sap.global.js"],
      "includes" : []
    },
    {
      "name" : "sap/suite/ui/commons/JamContent.js",
      "description" : "Provides control sap.suite.ui.commons.JamContent.",
      "size" : 12114,
      "compressedSize" : 2216,
      "required" : ["sap/suite/ui/commons/library.js", "sap/ui/core/Control.js", "jquery.sap.global.js"],
      "includes" : []
    },
    {
      "name" : "sap/suite/ui/commons/JamContentRenderer.js",
      "description" : "! SAP UI development toolkit for HTML5 (SAPUI5) (c) Copyright 2009-2013 SAP AG. All rights reserved",
      "size" : 2691,
      "compressedSize" : 1397,
      "required" : ["jquery.sap.global.js"],
      "includes" : []
    },
    {
      "name" : "sap/suite/ui/commons/KpiTile.js",
      "description" : "Provides control sap.suite.ui.commons.KpiTile.",
      "size" : 7969,
      "compressedSize" : 793,
      "required" : ["sap/suite/ui/commons/library.js", "sap/ui/core/Control.js", "jquery.sap.global.js"],
      "includes" : []
    },
    {
      "name" : "sap/suite/ui/commons/KpiTileRenderer.js",
      "description" : "! SAP UI development toolkit for HTML5 (SAPUI5) (c) Copyright 2009-2013 SAP AG. All rights reserved",
      "size" : 2817,
      "compressedSize" : 1472,
      "required" : ["jquery.sap.global.js"],
      "includes" : []
    },
    {
      "name" : "sap/suite/ui/commons/LaunchTile.js",
      "description" : "Provides control sap.suite.ui.commons.LaunchTile.",
      "size" : 8796,
      "compressedSize" : 1197,
      "required" : ["sap/suite/ui/commons/library.js", "sap/ui/core/Control.js", "sap/ui/core/IconPool.js", "jquery.sap.global.js"],
      "includes" : []
    },
    {
      "name" : "sap/suite/ui/commons/LaunchTileRenderer.js",
      "description" : "@copyright",
      "size" : 2024,
      "compressedSize" : 1105,
      "required" : ["jquery.sap.global.js"],
      "includes" : []
    },
    {
      "name" : "sap/suite/ui/commons/LinkActionSheet.js",
      "description" : "Provides control sap.suite.ui.commons.LinkActionSheet.",
      "size" : 11967,
      "compressedSize" : 2692,
      "required" : ["sap/suite/ui/commons/library.js", "sap/m/ActionSheet.js", "jquery.sap.global.js"],
      "includes" : []
    },
    {
      "name" : "sap/suite/ui/commons/LinkActionSheetRenderer.js",
      "description" : "! SAP UI development toolkit for HTML5 (SAPUI5) (c) Copyright 2009-2013 SAP AG. All rights reserved",
      "size" : 2373,
      "compressedSize" : 1196,
      "required" : ["sap/m/ActionSheetRenderer.js", "sap/ui/core/Renderer.js", "jquery.sap.global.js"],
      "includes" : []
    },
    {
      "name" : "sap/suite/ui/commons/MicroAreaChart.js",
      "description" : "Provides control sap.suite.ui.commons.MicroAreaChart.",
      "size" : 35426,
      "compressedSize" : 9552,
      "required" : ["sap/suite/ui/commons/library.js", "sap/ui/core/Control.js", "jquery.sap.global.js"],
      "includes" : []
    },
    {
      "name" : "sap/suite/ui/commons/MicroAreaChartItem.js",
      "description" : "Provides control sap.suite.ui.commons.MicroAreaChartItem.",
      "size" : 8108,
      "compressedSize" : 652,
      "required" : ["sap/suite/ui/commons/library.js", "sap/ui/core/Element.js", "jquery.sap.global.js"],
      "includes" : []
    },
    {
      "name" : "sap/suite/ui/commons/MicroAreaChartLabel.js",
      "description" : "Provides control sap.suite.ui.commons.MicroAreaChartLabel.",
      "size" : 4957,
      "compressedSize" : 542,
      "required" : ["sap/suite/ui/commons/library.js", "sap/ui/core/Element.js", "jquery.sap.global.js"],
      "includes" : []
    },
    {
      "name" : "sap/suite/ui/commons/MicroAreaChartPoint.js",
      "description" : "Provides control sap.suite.ui.commons.MicroAreaChartPoint.",
      "size" : 6134,
      "compressedSize" : 1209,
      "required" : ["sap/suite/ui/commons/library.js", "sap/ui/core/Element.js", "jquery.sap.global.js"],
      "includes" : []
    },
    {
      "name" : "sap/suite/ui/commons/MicroAreaChartRenderer.js",
      "description" : "! SAP UI development toolkit for HTML5 (SAPUI5) (c) Copyright 2009-2013 SAP AG. All rights reserved",
      "size" : 4115,
      "compressedSize" : 2409,
      "required" : ["jquery.sap.global.js"],
      "includes" : []
    },
    {
      "name" : "sap/suite/ui/commons/MonitoringContent.js",
      "description" : "Provides control sap.suite.ui.commons.MonitoringContent.",
      "size" : 12061,
      "compressedSize" : 1819,
      "required" : ["sap/suite/ui/commons/library.js", "sap/ui/core/Control.js", "jquery.sap.global.js"],
      "includes" : []
    },
    {
      "name" : "sap/suite/ui/commons/MonitoringContentRenderer.js",
      "description" : "! SAP UI development toolkit for HTML5 (SAPUI5) (c) Copyright 2009-2013 SAP AG. All rights reserved",
      "size" : 2434,
      "compressedSize" : 1276,
      "required" : ["sap/ui/core/Renderer.js", "jquery.sap.global.js"],
      "includes" : []
    },
    {
      "name" : "sap/suite/ui/commons/MonitoringTile.js",
      "description" : "Provides control sap.suite.ui.commons.MonitoringTile.",
      "size" : 7602,
      "compressedSize" : 1993,
      "required" : ["sap/suite/ui/commons/library.js", "sap/suite/ui/commons/InfoTile.js", "jquery.sap.global.js"],
      "includes" : []
    },
    {
      "name" : "sap/suite/ui/commons/MonitoringTileRenderer.js",
      "description" : "! SAP UI development toolkit for HTML5 (SAPUI5) (c) Copyright 2009-2013 SAP AG. All rights reserved",
      "size" : 1237,
      "compressedSize" : 686,
      "required" : ["sap/ui/core/Renderer.js", "sap/suite/ui/commons/InfoTileRenderer.js", "jquery.sap.global.js"],
      "includes" : []
    },
    {
      "name" : "sap/suite/ui/commons/NewsContent.js",
      "description" : "Provides control sap.suite.ui.commons.NewsContent.",
      "size" : 9672,
      "compressedSize" : 2019,
      "required" : ["sap/suite/ui/commons/library.js", "sap/ui/core/Control.js", "jquery.sap.global.js"],
      "includes" : []
    },
    {
      "name" : "sap/suite/ui/commons/NewsContentRenderer.js",
      "description" : "! SAP UI development toolkit for HTML5 (SAPUI5) (c) Copyright 2009-2013 SAP AG. All rights reserved",
      "size" : 1892,
      "compressedSize" : 1037,
      "required" : ["jquery.sap.global.js"],
      "includes" : []
    },
    {
      "name" : "sap/suite/ui/commons/NoteTaker.js",
      "description" : "Provides control sap.suite.ui.commons.NoteTaker.",
      "size" : 73598,
      "compressedSize" : 20634,
      "required" : ["sap/suite/ui/commons/library.js", "sap/ui/core/Control.js", "sap/ui/commons/Carousel.js", "sap/ui/commons/SearchField.js", "jquery.sap.global.js"],
      "includes" : []
    },
    {
      "name" : "sap/suite/ui/commons/NoteTakerCard.js",
      "description" : "Provides control sap.suite.ui.commons.NoteTakerCard.",
      "size" : 62979,
      "compressedSize" : 24946,
      "required" : ["sap/suite/ui/commons/library.js", "sap/ui/core/Control.js", "sap/ui/core/Locale.js", "sap/ui/core/format/DateFormat.js", "sap/ui/ux3/OverlayContainer.js", "sap/ui/commons/Link.js", "sap/ui/commons/MessageBox.js", "jquery.sap.global.js"],
      "includes" : []
    },
    {
      "name" : "sap/suite/ui/commons/NoteTakerCardRenderer.js",
      "description" : "! SAP UI development toolkit for HTML5 (SAPUI5) (c) Copyright 2009-2013 SAP AG. All rights reserved",
      "size" : 8194,
      "compressedSize" : 4167,
      "required" : ["sap/suite/ui/commons/util/RenderUtils.js", "jquery.sap.global.js"],
      "includes" : []
    },
    {
      "name" : "sap/suite/ui/commons/NoteTakerFeeder.js",
      "description" : "Provides control sap.suite.ui.commons.NoteTakerFeeder.",
      "size" : 47021,
      "compressedSize" : 17997,
      "required" : ["sap/suite/ui/commons/library.js", "sap/ui/core/Control.js", "sap/ui/ux3/ToolPopup.js", "jquery.sap.global.js"],
      "includes" : []
    },
    {
      "name" : "sap/suite/ui/commons/NoteTakerFeederRenderer.js",
      "description" : "! SAP UI development toolkit for HTML5 (SAPUI5) (c) Copyright 2009-2013 SAP AG. All rights reserved",
      "size" : 7361,
      "compressedSize" : 4219,
      "required" : ["jquery.sap.global.js"],
      "includes" : []
    },
    {
      "name" : "sap/suite/ui/commons/NoteTakerRenderer.js",
      "description" : "! SAP UI development toolkit for HTML5 (SAPUI5) (c) Copyright 2009-2013 SAP AG. All rights reserved",
      "size" : 4930,
      "compressedSize" : 2893,
      "required" : ["jquery.sap.global.js"],
      "includes" : []
    },
    {
      "name" : "sap/suite/ui/commons/NumericContent.js",
      "description" : "Provides control sap.suite.ui.commons.NumericContent.",
      "size" : 19888,
      "compressedSize" : 4091,
      "required" : ["sap/suite/ui/commons/library.js", "sap/ui/core/Control.js", "sap/ui/core/IconPool.js", "jquery.sap.global.js"],
      "includes" : []
    },
    {
      "name" : "sap/suite/ui/commons/NumericContentRenderer.js",
      "description" : "! SAP UI development toolkit for HTML5 (SAPUI5) (c) Copyright 2009-2013 SAP AG. All rights reserved",
      "size" : 4455,
      "compressedSize" : 2270,
      "required" : ["jquery.sap.global.js"],
      "includes" : []
    },
    {
      "name" : "sap/suite/ui/commons/NumericTile.js",
      "description" : "Provides control sap.suite.ui.commons.NumericTile.",
      "size" : 9342,
      "compressedSize" : 2383,
      "required" : ["sap/suite/ui/commons/library.js", "sap/suite/ui/commons/InfoTile.js", "jquery.sap.global.js"],
      "includes" : []
    },
    {
      "name" : "sap/suite/ui/commons/NumericTileRenderer.js",
      "description" : "! SAP UI development toolkit for HTML5 (SAPUI5) (c) Copyright 2009-2013 SAP AG. All rights reserved",
      "size" : 1941,
      "compressedSize" : 838,
      "required" : ["sap/ui/core/Renderer.js", "sap/suite/ui/commons/InfoTileRenderer.js", "jquery.sap.global.js"],
      "includes" : []
    },
    {
      "name" : "sap/suite/ui/commons/PictureZoomIn.js",
      "description" : "Provides control sap.suite.ui.commons.PictureZoomIn.",
      "size" : 8688,
      "compressedSize" : 2598,
      "required" : ["sap/suite/ui/commons/library.js", "sap/ui/core/Control.js", "jquery.sap.global.js"],
      "includes" : []
    },
    {
      "name" : "sap/suite/ui/commons/PictureZoomInRenderer.js",
      "description" : "! SAP UI development toolkit for HTML5 (SAPUI5) (c) Copyright 2009-2013 SAP AG. All rights reserved",
      "size" : 1317,
      "compressedSize" : 695,
      "required" : ["jquery.sap.global.js"],
      "includes" : []
    },
    {
      "name" : "sap/suite/ui/commons/ProcessFlow.js",
      "description" : "Provides control sap.suite.ui.commons.ProcessFlow.",
      "size" : 111989,
      "compressedSize" : 38274,
      "required" : ["sap/suite/ui/commons/library.js", "sap/ui/core/Control.js", "jquery.sap.global.js"],
      "includes" : []
    },
    {
      "name" : "sap/suite/ui/commons/ProcessFlowConnection.js",
      "description" : "Provides control sap.suite.ui.commons.ProcessFlowConnection.",
      "size" : 9407,
      "compressedSize" : 2287,
      "required" : ["sap/suite/ui/commons/library.js", "sap/ui/core/Control.js", "jquery.sap.global.js"],
      "includes" : []
    },
    {
      "name" : "sap/suite/ui/commons/ProcessFlowConnectionRenderer.js",
      "description" : "! SAP UI development toolkit for HTML5 (SAPUI5) (c) Copyright 2009-2013 SAP AG. All rights reserved",
      "size" : 16153,
      "compressedSize" : 10550,
      "required" : ["jquery.sap.global.js"],
      "includes" : []
    },
    {
      "name" : "sap/suite/ui/commons/ProcessFlowLaneHeader.js",
      "description" : "Provides control sap.suite.ui.commons.ProcessFlowLaneHeader.",
      "size" : 36684,
      "compressedSize" : 10340,
      "required" : ["sap/suite/ui/commons/library.js", "sap/ui/core/Control.js", "sap/ui/core/IconPool.js", "sap/m/Image.js", "jquery.sap.global.js"],
      "includes" : []
    },
    {
      "name" : "sap/suite/ui/commons/ProcessFlowLaneHeaderRenderer.js",
      "description" : "SAP UI development toolkit for HTML5 (SAPUI5) (c) Copyright 2009-2013 SAP AG. All rights reserved",
      "size" : 6445,
      "compressedSize" : 3186,
      "required" : ["jquery.sap.global.js"],
      "includes" : []
    },
    {
      "name" : "sap/suite/ui/commons/ProcessFlowNode.js",
      "description" : "Provides control sap.suite.ui.commons.ProcessFlowNode.",
      "size" : 48915,
      "compressedSize" : 21528,
      "required" : ["sap/suite/ui/commons/library.js", "sap/ui/core/Control.js", "sap/ui/core/IconPool.js", "sap/m/Text.js", "jquery.sap.global.js"],
      "includes" : []
    },
    {
      "name" : "sap/suite/ui/commons/ProcessFlowNodeRenderer.js",
      "description" : "SAP UI development toolkit for HTML5 (SAPUI5) (c) Copyright 2009-2013 SAP AG. All rights reserved",
      "size" : 20914,
      "compressedSize" : 11965,
      "required" : ["jquery.sap.global.js"],
      "includes" : []
    },
    {
      "name" : "sap/suite/ui/commons/ProcessFlowRenderer.js",
      "description" : "SAP UI development toolkit for HTML5 (SAPUI5) (c) Copyright 2009-2013 SAP AG. All rights reserved",
      "size" : 8955,
      "compressedSize" : 4238,
      "required" : ["sap/suite/ui/commons/ProcessFlowLaneHeader.js", "jquery.sap.global.js"],
      "includes" : []
    },
    {
      "name" : "sap/suite/ui/commons/RepeaterViewConfiguration.js",
      "description" : "Provides control sap.suite.ui.commons.RepeaterViewConfiguration.",
      "size" : 15074,
      "compressedSize" : 1148,
      "required" : ["sap/suite/ui/commons/library.js", "sap/ui/core/Control.js", "jquery.sap.global.js"],
      "includes" : []
    },
    {
      "name" : "sap/suite/ui/commons/SplitButton.js",
      "description" : "Provides control sap.suite.ui.commons.SplitButton.",
      "size" : 22488,
      "compressedSize" : 5107,
      "required" : ["sap/suite/ui/commons/library.js", "sap/ui/core/Control.js", "sap/ui/commons/Button.js", "sap/ui/commons/MenuButton.js", "sap/ui/commons/MenuItem.js", "jquery.sap.global.js"],
      "includes" : []
    },
    {
      "name" : "sap/suite/ui/commons/SplitButtonRenderer.js",
      "description" : "! SAP UI development toolkit for HTML5 (SAPUI5) (c) Copyright 2009-2013 SAP AG. All rights reserved",
      "size" : 1230,
      "compressedSize" : 512,
      "required" : ["jquery.sap.global.js"],
      "includes" : []
    },
    {
      "name" : "sap/suite/ui/commons/ThingCollection.js",
      "description" : "Provides control sap.suite.ui.commons.ThingCollection.",
      "size" : 19122,
      "compressedSize" : 6754,
      "required" : ["sap/suite/ui/commons/library.js", "sap/ui/core/Control.js", "jquery.sap.global.js"],
      "includes" : []
    },
    {
      "name" : "sap/suite/ui/commons/ThingCollectionRenderer.js",
      "description" : "! SAP UI development toolkit for HTML5 (SAPUI5) (c) Copyright 2009-2013 SAP AG. All rights reserved",
      "size" : 3131,
      "compressedSize" : 1833,
      "required" : ["jquery.sap.global.js"],
      "includes" : []
    },
    {
      "name" : "sap/suite/ui/commons/ThreePanelThingInspector.js",
      "description" : "Provides control sap.suite.ui.commons.ThreePanelThingInspector.",
      "size" : 11781,
      "compressedSize" : 2962,
      "required" : ["sap/suite/ui/commons/library.js", "sap/ui/ux3/ThingInspector.js", "jquery.sap.global.js"],
      "includes" : []
    },
    {
      "name" : "sap/suite/ui/commons/ThreePanelThingInspectorRenderer.js",
      "description" : "! SAP UI development toolkit for HTML5 (SAPUI5) (c) Copyright 2009-2013 SAP AG. All rights reserved",
      "size" : 416,
      "compressedSize" : 402,
      "required" : ["sap/ui/ux3/ThingInspectorRenderer.js", "sap/ui/core/Renderer.js", "jquery.sap.global.js"],
      "includes" : []
    },
    {
      "name" : "sap/suite/ui/commons/ThreePanelThingViewer.js",
      "description" : "Provides control sap.suite.ui.commons.ThreePanelThingViewer.",
      "size" : 16215,
      "compressedSize" : 5281,
      "required" : ["sap/suite/ui/commons/library.js", "sap/ui/ux3/ThingViewer.js", "sap/suite/ui/commons/VerticalNavigationBar.js", "sap/ui/ux3/NavigationBar.js", "jquery.sap.global.js"],
      "includes" : []
    },
    {
      "name" : "sap/suite/ui/commons/ThreePanelThingViewerRenderer.js",
      "description" : "! SAP UI development toolkit for HTML5 (SAPUI5) (c) Copyright 2009-2013 SAP AG. All rights reserved",
      "size" : 7006,
      "compressedSize" : 4286,
      "required" : ["sap/ui/ux3/ThingViewerRenderer.js", "sap/ui/core/Renderer.js", "jquery.sap.global.js"],
      "includes" : []
    },
    {
      "name" : "sap/suite/ui/commons/TileContent.js",
      "description" : "Provides control sap.suite.ui.commons.TileContent.",
      "size" : 8885,
      "compressedSize" : 1941,
      "required" : ["sap/suite/ui/commons/library.js", "sap/ui/core/Control.js", "jquery.sap.global.js"],
      "includes" : []
    },
    {
      "name" : "sap/suite/ui/commons/TileContentRenderer.js",
      "description" : "! SAP UI development toolkit for HTML5 (SAPUI5) (c) Copyright 2009-2013 SAP AG. All rights reserved",
      "size" : 3303,
      "compressedSize" : 1308,
      "required" : ["sap/ui/core/Renderer.js", "jquery.sap.global.js"],
      "includes" : []
    },
    {
      "name" : "sap/suite/ui/commons/Timeline.js",
      "description" : "Provides control sap.suite.ui.commons.Timeline.",
      "size" : 49612,
      "compressedSize" : 17716,
      "required" : ["sap/suite/ui/commons/library.js", "sap/ui/core/Control.js", "sap/m/library.js", "sap/ui/core/IconPool.js", "sap/ui/core/Icon.js", "sap/ui/core/delegate/ItemNavigation.js", "sap/suite/ui/commons/TimelineFilterListItem.js", "jquery.sap.global.js"],
      "includes" : []
    },
    {
      "name" : "sap/suite/ui/commons/TimelineFilterListItem.js",
      "description" : "Provides control sap.suite.ui.commons.TimelineFilterListItem.",
      "size" : 4697,
      "compressedSize" : 507,
      "required" : ["sap/suite/ui/commons/library.js", "sap/ui/core/Control.js", "jquery.sap.global.js"],
      "includes" : []
    },
    {
      "name" : "sap/suite/ui/commons/TimelineFilterListItemRenderer.js",
      "description" : "@copyright",
      "size" : 992,
      "compressedSize" : 458,
      "required" : ["sap/ui/core/Renderer.js", "sap/m/ListItemBaseRenderer.js", "jquery.sap.global.js"],
      "includes" : []
    },
    {
      "name" : "sap/suite/ui/commons/TimelineItem.js",
      "description" : "Provides control sap.suite.ui.commons.TimelineItem.",
      "size" : 16070,
      "compressedSize" : 3479,
      "required" : ["sap/suite/ui/commons/library.js", "sap/ui/core/Control.js", "sap/m/library.js", "sap/ui/core/IconPool.js", "sap/ui/core/format/DateFormat.js", "jquery.sap.global.js"],
      "includes" : []
    },
    {
      "name" : "sap/suite/ui/commons/TimelineItemRenderer.js",
      "description" : "! SAP UI development toolkit for HTML5 (SAPUI5) (c) Copyright 2009-2013 SAP AG. All rights reserved",
      "size" : 4754,
      "compressedSize" : 2905,
      "required" : ["sap/ui/core/Renderer.js", "jquery.sap.global.js"],
      "includes" : []
    },
    {
      "name" : "sap/suite/ui/commons/TimelineRenderer.js",
      "description" : "! SAP UI development toolkit for HTML5 (SAPUI5) (c) Copyright 2009-2013 SAP AG. All rights reserved",
      "size" : 3036,
      "compressedSize" : 1648,
      "required" : ["jquery.sap.global.js"],
      "includes" : []
    },
    {
      "name" : "sap/suite/ui/commons/UnifiedThingGroup.js",
      "description" : "Provides control sap.suite.ui.commons.UnifiedThingGroup.",
      "size" : 6613,
      "compressedSize" : 706,
      "required" : ["sap/suite/ui/commons/library.js", "sap/ui/core/Control.js", "jquery.sap.global.js"],
      "includes" : []
    },
    {
      "name" : "sap/suite/ui/commons/UnifiedThingGroupRenderer.js",
      "description" : "! SAP UI development toolkit for HTML5 (SAPUI5) (c) Copyright 2009-2013 SAP AG. All rights reserved",
      "size" : 2185,
      "compressedSize" : 1225,
      "required" : ["jquery.sap.global.js"],
      "includes" : []
    },
    {
      "name" : "sap/suite/ui/commons/UnifiedThingInspector.js",
      "description" : "Provides control sap.suite.ui.commons.UnifiedThingInspector.",
      "size" : 89100,
      "compressedSize" : 23006,
      "required" : ["sap/suite/ui/commons/library.js", "sap/ui/core/Control.js", "sap/m/NavContainer.js", "sap/ui/layout/Grid.js", "sap/ui/core/IconPool.js", "jquery.sap.global.js"],
      "includes" : []
    },
    {
      "name" : "sap/suite/ui/commons/UnifiedThingInspectorRenderer.js",
      "description" : "! SAP UI development toolkit for HTML5 (SAPUI5) (c) Copyright 2009-2013 SAP AG. All rights reserved",
      "size" : 1176,
      "compressedSize" : 579,
      "required" : ["jquery.sap.global.js"],
      "includes" : []
    },
    {
      "name" : "sap/suite/ui/commons/VerticalNavigationBar.js",
      "description" : "Provides control sap.suite.ui.commons.VerticalNavigationBar.",
      "size" : 5940,
      "compressedSize" : 1972,
      "required" : ["sap/suite/ui/commons/library.js", "sap/ui/ux3/NavigationBar.js", "jquery.sap.global.js"],
      "includes" : []
    },
    {
      "name" : "sap/suite/ui/commons/VerticalNavigationBarRenderer.js",
      "description" : "! SAP UI development toolkit for HTML5 (SAPUI5) (c) Copyright 2009-2013 SAP AG. All rights reserved",
      "size" : 4859,
      "compressedSize" : 2420,
      "required" : ["sap/ui/ux3/NavigationBarRenderer.js", "sap/ui/core/Renderer.js", "jquery.sap.global.js"],
      "includes" : []
    },
    {
      "name" : "sap/suite/ui/commons/ViewRepeater.js",
      "description" : "Provides control sap.suite.ui.commons.ViewRepeater.",
      "size" : 36475,
      "compressedSize" : 9979,
      "required" : ["sap/suite/ui/commons/library.js", "sap/ui/commons/RowRepeater.js", "jquery.sap.global.js"],
      "includes" : []
    },
    {
      "name" : "sap/suite/ui/commons/ViewRepeaterRenderer.js",
      "description" : "! SAP UI development toolkit for HTML5 (SAPUI5) (c) Copyright 2009-2013 SAP AG. All rights reserved",
      "size" : 4300,
      "compressedSize" : 2017,
      "required" : ["sap/ui/commons/RowRepeaterRenderer.js", "jquery.sap.global.js"],
      "includes" : []
    },
    {
      "name" : "sap/suite/ui/commons/library.js",
      "description" : "Initialization Code and shared classes of library sap.suite.ui.commons (1.24.1)",
      "size" : 26162,
      "compressedSize" : 6467,
      "required" : ["sap/ui/core/Core.js", "sap/ui/core/library.js", "jquery.sap.global.js"],
      "includes" : ["sap/suite/ui/commons/BulletChartMode.js", "sap/suite/ui/commons/CommonBackground.js", "sap/suite/ui/commons/DeviationIndicator.js", "sap/suite/ui/commons/FacetOverviewHeight.js", "sap/suite/ui/commons/FrameType.js", "sap/suite/ui/commons/InfoTileSize.js", "sap/suite/ui/commons/InfoTileTextColor.js", "sap/suite/ui/commons/InfoTileValueColor.js", "sap/suite/ui/commons/LoadState.js", "sap/suite/ui/commons/ProcessFlowDisplayState.js", "sap/suite/ui/commons/ProcessFlowLaneState.js", "sap/suite/ui/commons/ProcessFlowNodeState.js", "sap/suite/ui/commons/ProcessFlowZoomLevel.js", "sap/suite/ui/commons/SelectionState.js", "sap/suite/ui/commons/ThingGroupDesign.js", "sap/suite/ui/commons/TimelineAlignment.js", "sap/suite/ui/commons/TimelineAxisOrientation.js", "sap/suite/ui/commons/TimelineItemPosition.js", "sap/suite/ui/commons/ValueStatus.js"]
    },
    {
      "name" : "sap/suite/ui/commons/library.properties",
      "size" : 6519,
      "required" : [],
      "includes" : []
    },
    {
      "name" : "sap/suite/ui/commons/messagebundle.properties",
      "size" : 10220,
      "required" : [],
      "includes" : []
    },
    {
      "name" : "sap/suite/ui/commons/messagebundle_ar.properties",
      "size" : 16639,
      "required" : [],
      "includes" : []
    },
    {
      "name" : "sap/suite/ui/commons/messagebundle_bg.properties",
      "size" : 19063,
      "required" : [],
      "includes" : []
    },
    {
      "name" : "sap/suite/ui/commons/messagebundle_ca.properties",
      "size" : 10432,
      "required" : [],
      "includes" : []
    },
    {
      "name" : "sap/suite/ui/commons/messagebundle_cs.properties",
      "size" : 11260,
      "required" : [],
      "includes" : []
    },
    {
      "name" : "sap/suite/ui/commons/messagebundle_da.properties",
      "size" : 10183,
      "required" : [],
      "includes" : []
    },
    {
      "name" : "sap/suite/ui/commons/messagebundle_de.properties",
      "size" : 10398,
      "required" : [],
      "includes" : []
    },
    {
      "name" : "sap/suite/ui/commons/messagebundle_el.properties",
      "size" : 17841,
      "required" : [],
      "includes" : []
    },
    {
      "name" : "sap/suite/ui/commons/messagebundle_en.properties",
      "size" : 10091,
      "required" : [],
      "includes" : []
    },
    {
      "name" : "sap/suite/ui/commons/messagebundle_es.properties",
      "size" : 10379,
      "required" : [],
      "includes" : []
    },
    {
      "name" : "sap/suite/ui/commons/messagebundle_et.properties",
      "size" : 10540,
      "required" : [],
      "includes" : []
    },
    {
      "name" : "sap/suite/ui/commons/messagebundle_fi.properties",
      "size" : 10854,
      "required" : [],
      "includes" : []
    },
    {
      "name" : "sap/suite/ui/commons/messagebundle_fr.properties",
      "size" : 10526,
      "required" : [],
      "includes" : []
    },
    {
      "name" : "sap/suite/ui/commons/messagebundle_hi.properties",
      "size" : 17559,
      "required" : [],
      "includes" : []
    },
    {
      "name" : "sap/suite/ui/commons/messagebundle_hr.properties",
      "size" : 10597,
      "required" : [],
      "includes" : []
    },
    {
      "name" : "sap/suite/ui/commons/messagebundle_hu.properties",
      "size" : 11159,
      "required" : [],
      "includes" : []
    },
    {
      "name" : "sap/suite/ui/commons/messagebundle_it.properties",
      "size" : 10363,
      "required" : [],
      "includes" : []
    },
    {
      "name" : "sap/suite/ui/commons/messagebundle_iw.properties",
      "size" : 15350,
      "required" : [],
      "includes" : []
    },
    {
      "name" : "sap/suite/ui/commons/messagebundle_ja.properties",
      "size" : 12874,
      "required" : [],
      "includes" : []
    },
    {
      "name" : "sap/suite/ui/commons/messagebundle_ko.properties",
      "size" : 12799,
      "required" : [],
      "includes" : []
    },
    {
      "name" : "sap/suite/ui/commons/messagebundle_lt.properties",
      "size" : 11009,
      "required" : [],
      "includes" : []
    },
    {
      "name" : "sap/suite/ui/commons/messagebundle_lv.properties",
      "size" : 11312,
      "required" : [],
      "includes" : []
    },
    {
      "name" : "sap/suite/ui/commons/messagebundle_nl.properties",
      "size" : 10265,
      "required" : [],
      "includes" : []
    },
    {
      "name" : "sap/suite/ui/commons/messagebundle_no.properties",
      "size" : 10271,
      "required" : [],
      "includes" : []
    },
    {
      "name" : "sap/suite/ui/commons/messagebundle_pl.properties",
      "size" : 10894,
      "required" : [],
      "includes" : []
    },
    {
      "name" : "sap/suite/ui/commons/messagebundle_pt.properties",
      "size" : 10358,
      "required" : [],
      "includes" : []
    },
    {
      "name" : "sap/suite/ui/commons/messagebundle_ro.properties",
      "size" : 11136,
      "required" : [],
      "includes" : []
    },
    {
      "name" : "sap/suite/ui/commons/messagebundle_ru.properties",
      "size" : 18528,
      "required" : [],
      "includes" : []
    },
    {
      "name" : "sap/suite/ui/commons/messagebundle_sh.properties",
      "size" : 10607,
      "required" : [],
      "includes" : []
    },
    {
      "name" : "sap/suite/ui/commons/messagebundle_sk.properties",
      "size" : 11201,
      "required" : [],
      "includes" : []
    },
    {
      "name" : "sap/suite/ui/commons/messagebundle_sl.properties",
      "size" : 10434,
      "required" : [],
      "includes" : []
    },
    {
      "name" : "sap/suite/ui/commons/messagebundle_sv.properties",
      "size" : 10466,
      "required" : [],
      "includes" : []
    },
    {
      "name" : "sap/suite/ui/commons/messagebundle_th.properties",
      "size" : 17532,
      "required" : [],
      "includes" : []
    },
    {
      "name" : "sap/suite/ui/commons/messagebundle_tr.properties",
      "size" : 10768,
      "required" : [],
      "includes" : []
    },
    {
      "name" : "sap/suite/ui/commons/messagebundle_uk.properties",
      "size" : 18836,
      "required" : [],
      "includes" : []
    },
    {
      "name" : "sap/suite/ui/commons/messagebundle_vi.properties",
      "size" : 12954,
      "required" : [],
      "includes" : []
    },
    {
      "name" : "sap/suite/ui/commons/messagebundle_zh_CN.properties",
      "size" : 11490,
      "required" : [],
      "includes" : []
    },
    {
      "name" : "sap/suite/ui/commons/messagebundle_zh_TW.properties",
      "size" : 11466,
      "required" : [],
      "includes" : []
    },
    {
      "name" : "sap/suite/ui/commons/util/DateUtils.js",
      "description" : "! SAP UI development toolkit for HTML5 (SAPUI5) (c) Copyright 2009-2013 SAP AG. All rights reserved",
      "size" : 12219,
      "compressedSize" : 4621,
      "required" : ["jquery.sap.global.js"],
      "includes" : []
    },
    {
      "name" : "sap/suite/ui/commons/util/FeedAggregator.js",
      "description" : "! SAP UI development toolkit for HTML5 (SAPUI5) (c) Copyright 2009-2013 SAP AG. All rights reserved",
      "size" : 4403,
      "compressedSize" : 1677,
      "required" : ["sap/suite/ui/commons/util/DateUtils.js", "jquery.sap.global.js"],
      "includes" : []
    },
    {
      "name" : "sap/suite/ui/commons/util/FeedItemUtils.js",
      "description" : "! SAP UI development toolkit for HTML5 (SAPUI5) (c) Copyright 2009-2013 SAP AG. All rights reserved",
      "size" : 2354,
      "compressedSize" : 1174,
      "required" : ["sap/suite/ui/commons/util/DateUtils.js", "jquery.sap.global.js"],
      "includes" : []
    },
    {
      "name" : "sap/suite/ui/commons/util/RenderUtils.js",
      "description" : "! SAP UI development toolkit for HTML5 (SAPUI5) (c) Copyright 2009-2013 SAP AG. All rights reserved",
      "size" : 2183,
      "compressedSize" : 1148,
      "required" : ["sap/ui/base/Object.js", "jquery.sap.global.js"],
      "includes" : []
    }
  ]
}
